Homework 3
…
(e) summary table with multiple splitting variables

Use dplyr functions to produce a summary table showing how the proportion of high earners varies across all combinations of the following variables: sex, race, and marital (marital status). In addition to showing the proportion of high earners, your table should also show the number of individuals in each bin. Your table should have column names: sex, race, marital, count and high.earn.rate.

var_summary <- adult.data %>%
  group_by(sex, race, marital) %>%
  summarise(count = n(), 
            high.earn.rate = sum(high.income)/ count)

## `summarise()` has grouped output by 'sex', 'race'. You can override using the `.groups` argument.

print (var_summary)

## # A tibble: 63 x 5
## # Groups:   sex, race [10]
##    sex    race               marital               count high.earn.rate
##    <chr>  <chr>              <chr>                 <int>          <dbl>
##  1 Female Amer-Indian-Eskimo Divorced                 36         0.0556
##  2 Female Amer-Indian-Eskimo Married-civ-spouse       21         0.381 
##  3 Female Amer-Indian-Eskimo Married-spouse-absent     5         0     
##  4 Female Amer-Indian-Eskimo Never-married            39         0.0513
##  5 Female Amer-Indian-Eskimo Separated                 8         0     
##  6 Female Amer-Indian-Eskimo Widowed                  10         0     
##  7 Female Asian-Pac-Islander Divorced                 51         0.0784
##  8 Female Asian-Pac-Islander Married-civ-spouse       83         0.349 
##  9 Female Asian-Pac-Islander Married-spouse-absent    21         0.0476
## 10 Female Asian-Pac-Islander Never-married           161         0.0373
## # ... with 53 more rows
…
